…
    ## Joining, by = c("Entity", "Year")

``` r
#Finding observations that don't match
compare_both %>% 
  filter(group2021 != group2017) %>%
  arrange(Entity, Year)
```

    ## # A tibble: 50 x 4
    ##    Entity                  Year group2021           group2017      
    ##    <chr>                  <dbl> <chr>               <chr>          
    ##  1 Bosnia and Herzegovina  1987 Upper-middle income Not categorized
    ##  2 Bosnia and Herzegovina  1988 Upper-middle income Not categorized
    ##  3 Bosnia and Herzegovina  1989 Upper-middle income Not categorized
    ##  4 Bosnia and Herzegovina  1990 Upper-middle income Not categorized
    ##  5 Bosnia and Herzegovina  1991 Upper-middle income Not categorized
    ##  6 Croatia                 1987 Upper-middle income Not categorized
    ##  7 Croatia                 1988 Upper-middle income Not categorized
    ##  8 Croatia                 1989 Upper-middle income Not categorized
    ##  9 Croatia                 1990 Upper-middle income Not categorized
    ## 10 Croatia                 1991 Upper-middle income Not categorized
    ## # … with 40 more rows
…
``` r
compare_final <- full_join(groups_2017, groups_2021_standardized)
```

    ## Joining, by = c("Entity", "Year")

``` r
#Finding observations that don't match
compare_final %>% 
  filter(group2021_final != group2017) %>%
  arrange(Entity, Year)
```

    ## # A tibble: 73 x 5
    ##    Entity               Year group2017     Country            group2021_final   
    ##    <chr>               <dbl> <chr>         <chr>              <chr>             
    ##  1 Bosnia and Herzego…  1987 Not categori… Bosnia and Herzeg… Upper-middle inco…
    ##  2 Bosnia and Herzego…  1988 Not categori… Bosnia and Herzeg… Upper-middle inco…
    ##  3 Bosnia and Herzego…  1989 Not categori… Bosnia and Herzeg… Upper-middle inco…
    ##  4 Bosnia and Herzego…  1990 Not categori… Bosnia and Herzeg… Upper-middle inco…
    ##  5 Bosnia and Herzego…  1991 Not categori… Bosnia and Herzeg… Upper-middle inco…
    ##  6 Croatia              1987 Not categori… Croatia            Upper-middle inco…
    ##  7 Croatia              1988 Not categori… Croatia            Upper-middle inco…
    ##  8 Croatia              1989 Not categori… Croatia            Upper-middle inco…
    ##  9 Croatia              1990 Not categori… Croatia            Upper-middle inco…
    ## 10 Croatia              1991 Not categori… Croatia            Upper-middle inco…
    ## # … with 63 more rows
…
